<svg xmlns="http://www.w3.org/2000/svg" width="576" height="576" viewBox="0 0 576 576">
    <g id="Layer_2" data-name="Layer 2">
        <g id="Layer_1-2" data-name="Layer 1">
            <circle cx="288" cy="288" r="288" />
            <circle cx="288" cy="288" r="261" style="stroke:#999;stroke-miterlimit:10" />
            <circle cx="288" cy="288" r="225" style="stroke:#6d6d6d;stroke-miterlimit:10" />
            <circle cx="288" cy="288" r="180" style="stroke:#5b5b5b;stroke-miterlimit:10" />
            <circle cx="288" cy="288" r="135" style="stroke:#8e8e8e;stroke-miterlimit:10" />
            <circle cx="288" cy="288" r="90" style="fill:#f7e086" />
            <circle cx="288" cy="288" r="9" style="fill:#fff" />
        </g>
    </g>
</svg>