<svg xmlns="http://www.w3.org/2000/svg" class="icon icon-tabler icon-tabler-chevrons-down" width="44" height="44"
    viewBox="0 0 24 24" stroke-width="2" stroke="#000000" fill="none" stroke-linecap="round" stroke-linejoin="round">
    <path stroke="none" d="M0 0h24v24H0z" fill="none" />
    <polyline points="7 7 12 12 17 7" />
    <polyline points="7 13 12 18 17 13" />
</svg>